B_digital_(T)	B_analog_(T)	I_s	V_s	R_s	T_VTI_(K)	T_sample_(K)	Time
5.99900E-1	6.04118E-1	1.00000E-4	1.98349E-1	1.98349E+3	2.80100E+1	3.00210E+1	6.06366E+4
3.99900E-1	4.02089E-1	1.00000E-4	1.83002E-1	1.83002E+3	2.80110E+1	3.00310E+1	6.07235E+4
1.99900E-1	2.00674E-1	1.00000E-4	1.64224E-1	1.64224E+3	2.79970E+1	3.00200E+1	6.08115E+4
0.00000E+0	8.24781E-6	1.00000E-4	1.33220E-1	1.33220E+3	2.80020E+1	3.00180E+1	6.09325E+4
-1.99900E-1	-2.00251E-1	1.00000E-4	1.60542E-1	1.60541E+3	2.80020E+1	3.00170E+1	6.10226E+4
-3.99900E-1	-4.01480E-1	1.00000E-4	1.77875E-1	1.77875E+3	2.80010E+1	3.00150E+1	6.11096E+4
-5.99900E-1	-6.03173E-1	1.00000E-4	1.92055E-1	1.92055E+3	2.80010E+1	3.00130E+1	6.11975E+4
5.99900E-1	6.04242E-1	1.00000E-4	1.99512E-1	1.99512E+3	2.79950E+1	3.00120E+1	6.13436E+4
