B_digital_(T)	B_analog_(T)	I_s	V_s	R_s	T_VTI_(K)	T_sample_(K)	Time
5.99900E-1	6.03829E-1	2.00000E-4	5.46287E-2	2.73143E+2	3.10010E+1	3.30320E+1	6.44957E+4
3.99900E-1	4.01814E-1	2.00000E-4	5.14457E-2	2.57229E+2	3.09950E+1	3.30270E+1	6.45825E+4
1.99900E-1	2.00445E-1	2.00000E-4	4.65443E-2	2.32722E+2	3.09990E+1	3.30200E+1	6.46693E+4
0.00000E+0	1.21232E-4	2.00000E-4	3.95177E-2	1.97589E+2	3.10020E+1	3.30170E+1	6.47905E+4
-1.99900E-1	-2.00136E-1	2.00000E-4	4.92093E-2	2.46047E+2	3.09980E+1	3.30110E+1	6.48804E+4
-3.99900E-1	-4.00926E-1	2.00000E-4	5.66316E-2	2.83158E+2	3.09990E+1	3.30070E+1	6.49676E+4
-5.99900E-1	-6.02635E-1	2.00000E-4	6.24822E-2	3.12411E+2	3.09980E+1	3.30110E+1	6.50552E+4
5.99900E-1	6.03706E-1	2.00000E-4	5.53216E-2	2.76608E+2	3.09990E+1	3.30090E+1	6.52025E+4
