B_digital_(T)	B_analog_(T)	I_s	V_s	R_s	T_VTI_(K)	T_sample_(K)	Time
5.99900E-1	6.03871E-1	2.00000E-6	9.68415E-3	4.84207E+3	2.60040E+1	2.80290E+1	5.82176E+4
3.99900E-1	4.01853E-1	2.00000E-6	8.89635E-3	4.44818E+3	2.60030E+1	2.80240E+1	5.83057E+4
1.99900E-1	2.00522E-1	2.00000E-6	7.97784E-3	3.98892E+3	2.60040E+1	2.80240E+1	5.83925E+4
0.00000E+0	-1.04746E-4	2.00000E-6	6.63450E-3	3.31725E+3	2.60040E+1	2.80170E+1	5.85135E+4
-1.99900E-1	-2.00098E-1	2.00000E-6	8.41685E-3	4.20843E+3	2.60010E+1	2.80170E+1	5.86027E+4
-3.99900E-1	-4.01005E-1	2.00000E-6	9.91136E-3	4.95568E+3	2.60040E+1	2.80190E+1	5.86896E+4
-5.99900E-1	-6.02677E-1	2.00000E-6	1.12543E-2	5.62713E+3	2.59990E+1	2.80160E+1	5.87765E+4
5.99900E-1	6.03871E-1	2.00000E-6	9.77011E-3	4.88506E+3	2.60000E+1	2.80140E+1	5.89235E+4
