B_digital_(T)	B_analog_(T)	I_s	V_s	R_s	T_VTI_(K)	T_sample_(K)	Time
5.99900E-1	6.06680E-1	1.00000E-3	1.23328E-2	1.23328E+1	5.80440E+1	6.00720E+1	8.37825E+4
3.99900E-1	4.03829E-1	1.00000E-3	7.33485E-3	7.33485E+0	5.80610E+1	6.00720E+1	8.38704E+4
1.99900E-1	2.01591E-1	1.00000E-3	2.42687E-3	2.42687E+0	5.80630E+1	6.00810E+1	8.39573E+4
0.00000E+0	1.95849E-4	1.00000E-3	-2.49563E-3	-2.49563E+0	5.80540E+1	6.00580E+1	8.40784E+4
-1.99900E-1	-2.00216E-1	1.00000E-3	-7.57281E-3	-7.57281E+0	5.80370E+1	6.00350E+1	8.41684E+4
-3.99900E-1	-4.02396E-1	1.00000E-3	-1.28444E-2	-1.28444E+1	5.80240E+1	6.00410E+1	8.42564E+4
-5.99900E-1	-6.04838E-1	1.00000E-3	-1.82033E-2	-1.82033E+1	5.80110E+1	6.00270E+1	8.43444E+4
5.99900E-1	6.06268E-1	1.00000E-3	1.24028E-2	1.24028E+1	5.79950E+1	6.00080E+1	8.44915E+4
