B_digital_(T)	B_analog_(T)	I_s	V_s	R_s	T_VTI_(K)	T_sample_(K)	Time
5.99900E-1	6.06434E-1	1.00000E-3	5.98294E-3	5.98294E+0	7.82000E+1	8.01810E+1	7.98652E+3
3.99900E-1	4.03755E-1	1.00000E-3	4.39044E-3	4.39044E+0	7.82010E+1	8.01740E+1	8.07340E+3
1.99900E-1	2.01437E-1	1.00000E-3	2.87566E-3	2.87566E+0	7.81770E+1	8.01830E+1	8.16142E+3
0.00000E+0	2.57822E-4	1.00000E-3	1.38536E-3	1.38536E+0	7.81220E+1	8.01170E+1	8.28263E+3
-1.99900E-1	-2.00399E-1	1.00000E-3	-7.08637E-5	-7.08637E-2	7.80710E+1	8.00910E+1	8.37142E+3
-3.99900E-1	-4.02525E-1	1.00000E-3	-1.52918E-3	-1.52918E+0	7.80280E+1	8.00520E+1	8.45852E+3
-5.99900E-1	-6.04942E-1	1.00000E-3	-3.01483E-3	-3.01483E+0	7.79920E+1	8.00380E+1	8.54633E+3
5.99900E-1	6.06433E-1	1.00000E-3	6.01457E-3	6.01457E+0	7.79540E+1	7.99870E+1	8.69343E+3
