B_digital_(T)	B_analog_(T)	I_s	V_s	R_s	T_VTI_(K)	T_sample_(K)	Time
5.99900E-1	6.05877E-1	1.00000E-3	3.18169E-3	3.18169E+0	6.81210E+1	7.01260E+1	2.54343E+3
3.99900E-1	4.03121E-1	1.00000E-3	3.02977E-3	3.02977E+0	6.81280E+1	7.01450E+1	2.63117E+3
1.99900E-1	2.01190E-1	1.00000E-3	2.90855E-3	2.90855E+0	6.81150E+1	7.01270E+1	2.71856E+3
0.00000E+0	1.89166E-4	1.00000E-3	2.85825E-3	2.85825E+0	6.80820E+1	7.00860E+1	2.83938E+3
-1.99900E-1	-2.00250E-1	1.00000E-3	2.89560E-3	2.89560E+0	6.80500E+1	7.00840E+1	2.92848E+3
-3.99900E-1	-4.02025E-1	1.00000E-3	3.00647E-3	3.00647E+0	6.80210E+1	7.00400E+1	3.01537E+3
-5.99900E-1	-6.04103E-1	1.00000E-3	3.13795E-3	3.13795E+0	6.80010E+1	7.00150E+1	3.10227E+3
5.99900E-1	6.05711E-1	1.00000E-3	3.19237E-3	3.19237E+0	6.79750E+1	6.99880E+1	3.25949E+3
