B_digital_(T)	B_analog_(T)	I_s	V_s	R_s	T_VTI_(K)	T_sample_(K)	Time
5.99900E-1	6.05354E-1	4.00000E-8	2.81760E-3	7.04400E+4	2.29950E+1	2.50050E+1	5.44214E+4
3.99900E-1	4.02641E-1	4.00000E-8	2.43981E-3	6.09952E+4	2.30050E+1	2.50180E+1	5.45096E+4
1.99900E-1	2.01017E-1	4.00000E-8	2.01929E-3	5.04822E+4	2.30010E+1	2.50110E+1	5.45963E+4
0.00000E+0	4.59090E-5	4.00000E-8	1.51414E-3	3.78536E+4	2.30020E+1	2.50070E+1	5.47173E+4
-1.99900E-1	-2.00327E-1	4.00000E-8	1.72672E-3	4.31679E+4	2.30010E+1	2.50110E+1	5.48074E+4
-3.99900E-1	-4.01757E-1	4.00000E-8	1.99675E-3	4.99187E+4	2.29990E+1	2.50060E+1	5.48957E+4
-5.99900E-1	-6.03670E-1	4.00000E-8	1.90295E-3	4.75738E+4	2.29990E+1	2.50050E+1	5.49834E+4
5.99900E-1	6.04901E-1	4.00000E-8	2.77293E-3	6.93233E+4	2.29960E+1	2.50010E+1	5.51306E+4
