B_digital_(T)	B_analog_(T)	I_s	V_s	R_s	T_VTI_(K)	T_sample_(K)	Time
5.99900E-1	6.03788E-1	2.00000E-4	8.55904E-2	4.27952E+2	3.10050E+1	3.30380E+1	6.44797E+4
3.99900E-1	4.02050E-1	2.00000E-4	8.11913E-2	4.05957E+2	3.09940E+1	3.30260E+1	6.45662E+4
1.99900E-1	2.00407E-1	2.00000E-4	7.35237E-2	3.67618E+2	3.09990E+1	3.30230E+1	6.46534E+4
0.00000E+0	1.21232E-4	2.00000E-4	6.16057E-2	3.08028E+2	3.10030E+1	3.30140E+1	6.47742E+4
-1.99900E-1	-1.99983E-1	2.00000E-4	7.49219E-2	3.74609E+2	3.09980E+1	3.30200E+1	6.48644E+4
-3.99900E-1	-4.00886E-1	2.00000E-4	8.38910E-2	4.19455E+2	3.09990E+1	3.30150E+1	6.49519E+4
-5.99900E-1	-6.02635E-1	2.00000E-4	8.98698E-2	4.49349E+2	3.09990E+1	3.30100E+1	6.50394E+4
5.99900E-1	6.03541E-1	2.00000E-4	8.66642E-2	4.33321E+2	3.09990E+1	3.30080E+1	6.51868E+4
