B_digital_(T)	B_analog_(T)	I_s	V_s	R_s	T_VTI_(K)	T_sample_(K)	Time
5.99900E-1	6.05643E-1	1.00000E-3	4.40754E-2	4.40754E+1	3.99530E+1	4.20100E+1	7.18482E+4
3.99900E-1	4.03312E-1	1.00000E-3	4.08626E-2	4.08626E+1	4.00260E+1	4.20400E+1	7.19356E+4
1.99900E-1	2.01132E-1	1.00000E-3	3.62363E-2	3.62363E+1	4.00230E+1	4.20470E+1	7.20224E+4
0.00000E+0	4.59090E-5	1.00000E-3	3.20144E-2	3.20144E+1	3.99880E+1	4.20240E+1	7.21433E+4
-1.99900E-1	-2.00480E-1	1.00000E-3	3.57255E-2	3.57255E+1	3.99940E+1	4.20170E+1	7.22321E+4
-3.99900E-1	-4.02034E-1	1.00000E-3	3.96536E-2	3.96536E+1	4.00040E+1	4.20220E+1	7.23196E+4
-5.99900E-1	-6.04249E-1	1.00000E-3	4.19588E-2	4.19588E+1	4.00040E+1	4.20280E+1	7.24074E+4
5.99900E-1	6.05519E-1	1.00000E-3	4.40903E-2	4.40903E+1	3.99980E+1	4.20120E+1	7.25533E+4
