B_digital_(T)	B_analog_(T)	I_s	V_s	R_s	T_VTI_(K)	T_sample_(K)	Time
5.99900E-1	5.98911E-1	1.00000E-3	1.46432E-2	1.46432E+1	2.58028E+2	2.60127E+2	5.89880E+4
3.99900E-1	3.98009E-1	1.00000E-3	1.45888E-2	1.45888E+1	2.58015E+2	2.60186E+2	5.90745E+4
1.99900E-1	1.99056E-1	1.00000E-3	1.46010E-2	1.46010E+1	2.58007E+2	2.60173E+2	5.91614E+4
0.00000E+0	1.35189E-3	1.00000E-3	1.45878E-2	1.45878E+1	2.58011E+2	2.60216E+2	5.92825E+4
-1.99900E-1	-1.96656E-1	1.00000E-3	1.45967E-2	1.45967E+1	2.57998E+2	2.60164E+2	5.93715E+4
-3.99900E-1	-3.97056E-1	1.00000E-3	1.46079E-2	1.46079E+1	2.58002E+2	2.60207E+2	5.94589E+4
-5.99900E-1	-5.99367E-1	1.00000E-3	1.46143E-2	1.46143E+1	2.58002E+2	2.60182E+2	5.95453E+4
5.99900E-1	6.01355E-1	1.00000E-3	1.46412E-2	1.46412E+1	2.58004E+2	2.60179E+2	5.96924E+4
