B_digital_(T)	B_analog_(T)	I_s	V_s	R_s	T_VTI_(K)	T_sample_(K)	Time
5.99900E-1	6.05991E-1	1.00000E-3	4.40482E-3	4.40482E+0	7.31640E+1	7.51670E+1	5.24843E+3
3.99900E-1	4.03260E-1	1.00000E-3	4.20983E-3	4.20983E+0	7.31630E+1	7.51390E+1	5.33645E+3
1.99900E-1	2.01161E-1	1.00000E-3	4.06564E-3	4.06564E+0	7.31420E+1	7.51430E+1	5.42363E+3
0.00000E+0	1.10482E-4	1.00000E-3	4.01097E-3	4.01097E+0	7.30940E+1	7.51050E+1	5.54444E+3
-1.99900E-1	-2.00458E-1	1.00000E-3	4.04924E-3	4.04924E+0	7.30530E+1	7.50790E+1	5.63465E+3
-3.99900E-1	-4.02334E-1	1.00000E-3	4.16036E-3	4.16036E+0	7.30180E+1	7.50550E+1	5.72244E+3
-5.99900E-1	-6.04523E-1	1.00000E-3	4.31758E-3	4.31758E+0	7.29920E+1	7.50320E+1	5.80943E+3
5.99900E-1	6.06031E-1	1.00000E-3	4.42122E-3	4.42122E+0	7.29640E+1	7.49780E+1	5.95652E+3
