B_digital_(T)	B_analog_(T)	I_s	V_s	R_s	T_VTI_(K)	T_sample_(K)	Time
5.99900E-1	6.06474E-1	1.00000E-3	7.72863E-3	7.72863E+0	5.80510E+1	6.00810E+1	8.38102E+4
3.99900E-1	4.03868E-1	1.00000E-3	7.31071E-3	7.31071E+0	5.80640E+1	6.00890E+1	8.38982E+4
1.99900E-1	2.01477E-1	1.00000E-3	6.91812E-3	6.91812E+0	5.80620E+1	6.00820E+1	8.39855E+4
0.00000E+0	3.46489E-4	1.00000E-3	6.76535E-3	6.76535E+0	5.80490E+1	6.00690E+1	8.41064E+4
-1.99900E-1	-2.00675E-1	1.00000E-3	7.03791E-3	7.03791E+0	5.80330E+1	6.00500E+1	8.41964E+4
-3.99900E-1	-4.02634E-1	1.00000E-3	7.53279E-3	7.53279E+0	5.80180E+1	6.00240E+1	8.42844E+4
-5.99900E-1	-6.05045E-1	1.00000E-3	8.04871E-3	8.04871E+0	5.80070E+1	6.00180E+1	8.43725E+4
5.99900E-1	6.06350E-1	1.00000E-3	7.72467E-3	7.72467E+0	5.79920E+1	6.00040E+1	8.45195E+4
